{
    "@class": "com.kony.gen.viz.model.component.KVizButton",
    "DNDConfig": null,
    "__parentReadjusting__": false,
    "_height_": {
        "type": "string",
        "value": "50dp"
    },
    "_left_": {
        "type": "string",
        "value": "83dp"
    },
    "_margin_": [
        6,
        6,
        6,
        6
    ],
    "_padding_": [
        0,
        0,
        0,
        0
    ],
    "_skin_": "s7883b70418a474e9163ac6bd5403daa",
    "_text_": "Button",
    "_top_": {
        "type": "string",
        "value": "138dp"
    },
    "_width_": {
        "type": "string",
        "value": "260dp"
    },
    "canUpdateUI": true,
    "containerweight": 100,
    "contentalignment": 5,
    "displaytext": true,
    "focusskin": "sbc443f2d38942c79e49c6739d8ac756",
    "id": "btn2",
    "info": null,
    "isvisible": true,
    "kuid": "b1ddf8a813e14a10b1410d4f918208bb",
    "name": "kony.ui.Button",
    "parent": "form1",
    "pf": "form1",
    "wType": "Button",
    "zindex": 1
}